[
    {
    "origin": "Los Angeles",
    "to": "London",
    "codeOrigin": "LAX",
    "codeTo": "LHR",
    "type": "International"
  },
    {
    "origin": "Johannesburg",
    "to": "Abu Dhabi",
    "codeOrigin": "JNB",
    "codeTo": "AUH",
    "type": "International"
  },
    {
    "origin": "Johannesburg",
    "to": "Cape Town",
    "codeOrigin": "JNB",
    "codeTo": "CPT",
    "type": "Interieur"
  },
    {
    "origin": "Johannesburg",
    "to": "Nairobi",
    "codeOrigin": "JNB",
    "codeTo": "NBO",
    "type": "International"
  },


  {
    "origin": "New York",
    "to": "London",
    "codeOrigin": "JFK",
    "codeTo": "LHR",
    "type": "International"
  },


  {
    "origin": "Johannesburg",
    "to": "Dubai",
    "codeOrigin": "JNB",
    "codeTo": "DXB",
    "type": "International"
  },
  {
    "origin": "Johannesburg",
    "to": "Istanbul",
    "codeOrigin": "JNB",
    "codeTo": "IST",
    "type": "International"
  },
  {
    "origin": "Johannesburg",
    "to": "Atlanta",
    "codeOrigin": "JNB",
    "codeTo": "ATL",
    "type": "International"
  },
  {
    "origin": "Johannesburg",
    "to": "Doha",
    "codeOrigin": "JNB",
    "codeTo": "DOH",
    "type": "International"
  },
  {
    "origin": "Johannesburg",
    "to": "Hong Kong",
    "codeOrigin": "JNB",
    "codeTo": "HKG",
    "type": "International"
  },
  {
    "origin": "Johannesburg",
    "to": "Singapore",
    "codeOrigin": "JNB",
    "codeTo": "SIN",
    "type": "International"
  },
  {
    "origin": "Johannesburg",
    "to": "Sao Paulo",
    "codeOrigin": "JNB",
    "codeTo": "GRU",
    "type": "International"
  },
  {
    "origin": "Johannesburg",
    "to": "Sydney",
    "codeOrigin": "JNB",
    "codeTo": "SYD",
    "type": "International"
  },
  {
    "origin": "Cape Town",
    "to": "Dubai",
    "codeOrigin": "CPT",
    "codeTo": "DXB",
    "type": "International"
  },
  {
    "origin": "Cape Town",
    "to": "Amsterdam",
    "codeOrigin": "CPT",
    "codeTo": "AMS",
    "type": "International"
  },
  {
    "origin": "Sao Paulo",
    "to": "Salvador",
    "codeOrigin": "GRU",
    "codeTo": "SSA",
    "type": "Interieur"
  },
  {
    "origin": "Sao Paulo",
    "to": "Porto Alegre",
    "codeOrigin": "GRU",
    "codeTo": "POA",
    "type": "Interieur"
  },
  {
    "origin": "Sao Paulo",
    "to": "Brasilia",
    "codeOrigin": "GRU",
    "codeTo": "BSB",
    "type": "Interieur"
  },
  {
    "origin": "Sao Paulo",
    "to": "Santiago",
    "codeOrigin": "GRU",
    "codeTo": "SCL",
    "type": "International"
  },
  {
    "origin": "Sao Paulo",
    "to": "Buenos Aires",
    "codeOrigin": "GRU",
    "codeTo": "AEP",
    "type": "International"
  },
  {
    "origin": "Sao Paulo",
    "to": "Montevideo",
    "codeOrigin": "GRU",
    "codeTo": "MVD",
    "type": "International"
  },
  {
    "origin": "Sao Paulo",
    "to": "Miami",
    "codeOrigin": "GRU",
    "codeTo": "MIA",
    "type": "International"
  },
  {
    "origin": "Sao Paulo",
    "to": "Atlanta",
    "codeOrigin": "GRU",
    "codeTo": "ATL",
    "type": "International"
  },
  {
    "origin": "Sao Paulo",
    "to": "Barcelona",
    "codeOrigin": "GRU",
    "codeTo": "BCN",
    "type": "International"
  },
  {
    "origin": "Sao Paulo",
    "to": "New York",
    "codeOrigin": "GRU",
    "codeTo": "JFK",
    "type": "International"
  },
  {
    "origin": "Sao Paulo",
    "to": "Madrid",
    "codeOrigin": "GRU",
    "codeTo": "MAD",
    "type": "International"
  },
  {
    "origin": "Rio de Janeiro",
    "to": "Porto Alegre",
    "codeOrigin": "GIG",
    "codeTo": "POA",
    "type": "Interieur"
  },
  {
    "origin": "Rio de Janeiro",
    "to": "Sao Paulo",
    "codeOrigin": "GIG",
    "codeTo": "GRU",
    "type": "Interieur"
  },
  {
    "origin": "Rio de Janeiro",
    "to": "Amsterdam",
    "codeOrigin": "GIG",
    "codeTo": "AMS",
    "type": "International"
  },
  {
    "origin": "Rio de Janeiro",
    "to": "Buenos Aires",
    "codeOrigin": "GIG",
    "codeTo": "AEP",
    "type": "International"
  },
  {
    "origin": "Rio de Janeiro",
    "to": "Houston",
    "codeOrigin": "GIG",
    "codeTo": "IAH",
    "type": "International"
  },
  {
    "origin": "Buenos Aires",
    "to": "Santiago",
    "codeOrigin": "AEP",
    "codeTo": "SCL",
    "type": "International"
  },
  {
    "origin": "Buenos Aires",
    "to": "Porto Alegre",
    "codeOrigin": "AEP",
    "codeTo": "POA",
    "type": "International"
  },
  {
    "origin": "Buenos Aires",
    "to": "Lima",
    "codeOrigin": "EZE",
    "codeTo": "LIM",
    "type": "International"
  },
  {
    "origin": "Buenos Aires",
    "to": "Bogota",
    "codeOrigin": "EZE",
    "codeTo": "BOG",
    "type": "International"
  },
  {
    "origin": "Buenos Aires",
    "to": "Miami",
    "codeOrigin": "EZE",
    "codeTo": "MIA",
    "type": "International"
  },
  {
    "origin": "Buenos Aires",
    "to": "Madrid",
    "codeOrigin": "EZE",
    "codeTo": "MAD",
    "type": "International"
  },
  {
    "origin": "Buenos Aires",
    "to": "New York",
    "codeOrigin": "EZE",
    "codeTo": "JFK",
    "type": "International"
  },
  {
    "origin": "Buenos Aires",
    "to": "Amsterdam",
    "codeOrigin": "EZE",
    "codeTo": "AMS",
    "type": "International"
  },
  {
    "origin": "Buenos Aires",
    "to": "Barcelona",
    "codeOrigin": "EZE",
    "codeTo": "BCN",
    "type": "International"
  },
  {
    "origin": "Buenos Aires",
    "to": "Rome",
    "codeOrigin": "EZE",
    "codeTo": "FCO",
    "type": "International"
  },
  {
    "origin": "Mexico City",
    "to": "Cancun",
    "codeOrigin": "MEX",
    "codeTo": "CUN",
    "type": "Interieur"
  },
  {
    "origin": "Mexico City",
    "to": "Monterrey",
    "codeOrigin": "MEX",
    "codeTo": "MTY",
    "type": "Interieur"
  },
  {
    "origin": "Mexico City",
    "to": "Los Angeles",
    "codeOrigin": "MEX",
    "codeTo": "LAX",
    "type": "International"
  },
  {
    "origin": "Mexico City",
    "to": "Dallas",
    "codeOrigin": "MEX",
    "codeTo": "DFW",
    "type": "International"
  },
  {
    "origin": "Mexico City",
    "to": "New York",
    "codeOrigin": "MEX",
    "codeTo": "JFK",
    "type": "International"
  },
  {
    "origin": "Mexico City",
    "to": "Houston",
    "codeOrigin": "MEX",
    "codeTo": "IAH",
    "type": "International"
  },
  {
    "origin": "Mexico City",
    "to": "Tokyo",
    "codeOrigin": "MEX",
    "codeTo": "NRT",
    "type": "International"
  },
  {
    "origin": "Mexico City",
    "to": "Vancouver",
    "codeOrigin": "MEX",
    "codeTo": "YVR",
    "type": "International"
  },
  {
    "origin": "Mexico City",
    "to": "Madrid",
    "codeOrigin": "MEX",
    "codeTo": "MAD",
    "type": "International"
  },
  {
    "origin": "Mexico City",
    "to": "Toronto",
    "codeOrigin": "MEX",
    "codeTo": "YYZ",
    "type": "International"
  },
  {
    "origin": "Mexico City",
    "to": "London",
    "codeOrigin": "MEX",
    "codeTo": "LHR",
    "type": "International"
  },
  {
    "origin": "Mexico City",
    "to": "Paris",
    "codeOrigin": "MEX",
    "codeTo": "CDG",
    "type": "International"
  },
  {
    "origin": "Mexico City",
    "to": "Frankfurt",
    "codeOrigin": "MEX",
    "codeTo": "FRA",
    "type": "International"
  },
  {
    "origin": "Cancun",
    "to": "Chicago",
    "codeOrigin": "CUN",
    "codeTo": "ORD",
    "type": "International"
  },
  {
    "origin": "Sydney",
    "to": "Los Angeles",
    "codeOrigin": "SYD",
    "codeTo": "LAX",
    "type": "International"
  },
  {
    "origin": "Sydney",
    "to": "Perth",
    "codeOrigin": "SYD",
    "codeTo": "PER",
    "type": "Interieur"
  },
  {
    "origin": "Sydney",
    "to": "Singapore",
    "codeOrigin": "SYD",
    "codeTo": "SIN",
    "type": "International"
  },
  {
    "origin": "Sydney",
    "to": "Hong Kong",
    "codeOrigin": "SYD",
    "codeTo": "HKG",
    "type": "International"
  },
  {
    "origin": "Sydney",
    "to": "Bangkok",
    "codeOrigin": "SYD",
    "codeTo": "BKK",
    "type": "International"
  },
  {
    "origin": "Sydney",
    "to": "Melbourne",
    "codeOrigin": "SYD",
    "codeTo": "MEL",
    "type": "Interieur"
  },
  {
    "origin": "Sydney",
    "to": "Shanghai",
    "codeOrigin": "SYD",
    "codeTo": "PVG",
    "type": "International"
  },
  {
    "origin": "Sydney",
    "to": "Auckland",
    "codeOrigin": "SYD",
    "codeTo": "AKL",
    "type": "International"
  },
  {
    "origin": "Sydney",
    "to": "Abu Dhabi",
    "codeOrigin": "SYD",
    "codeTo": "AUH",
    "type": "International"
  },
  {
    "origin": "Sydney",
    "to": "Seoul",
    "codeOrigin": "SYD",
    "codeTo": "ICN",
    "type": "International"
  },
  {
    "origin": "Sydney",
    "to": "Dubai",
    "codeOrigin": "SYD",
    "codeTo": "DXB",
    "type": "International"
  },
  {
    "origin": "Sydney",
    "to": "Tokyo",
    "codeOrigin": "SYD",
    "codeTo": "HND",
    "type": "International"
  },
  {
    "origin": "Sydney",
    "to": "Kuala Lumpur",
    "codeOrigin": "SYD",
    "codeTo": "KUL",
    "type": "International"
  },
  {
    "origin": "Sydney",
    "to": "San Francisco",
    "codeOrigin": "SYD",
    "codeTo": "SFO",
    "type": "International"
  },
  {
    "origin": "Sydney",
    "to": "Bali",
    "codeOrigin": "SYD",
    "codeTo": "DPS",
    "type": "International"
  },
  {
    "origin": "Sydney",
    "to": "Guangzhou",
    "codeOrigin": "SYD",
    "codeTo": "CAN",
    "type": "International"
  },
  {
    "origin": "Sydney",
    "to": "Beijing",
    "codeOrigin": "SYD",
    "codeTo": "PEK",
    "type": "International"
  },
  {
    "origin": "Sydney",
    "to": "Vancouver",
    "codeOrigin": "SYD",
    "codeTo": "YVR",
    "type": "International"
  },
  {
    "origin": "Sydney",
    "to": "Doha",
    "codeOrigin": "SYD",
    "codeTo": "DOH",
    "type": "International"
  },
  {
    "origin": "Melbourne",
    "to": "Singapore",
    "codeOrigin": "MEL",
    "codeTo": "SIN",
    "type": "International"
  },
  {
    "origin": "Jakarta",
    "to": "Bali",
    "codeOrigin": "CGK",
    "codeTo": "DPS",
    "type": "Interieur"
  },
  {
    "origin": "Jakarta",
    "to": "Singapore",
    "codeOrigin": "CGK",
    "codeTo": "SIN",
    "type": "International"
  },
  {
    "origin": "Jakarta",
    "to": "Kuala Lumpur",
    "codeOrigin": "CGK",
    "codeTo": "SUB",
    "type": "International"
  },
  {
    "origin": "Jakarta",
    "to": "Jeddah",
    "codeOrigin": "CGK",
    "codeTo": "JED",
    "type": "International"
  },
  {
    "origin": "Jakarta",
    "to": "Hong Kong",
    "codeOrigin": "CGK",
    "codeTo": "HKG",
    "type": "International"
  },
  {
    "origin": "Jakarta",
    "to": "Bangkok",
    "codeOrigin": "CGK",
    "codeTo": "DMK",
    "type": "International"
  },
  {
    "origin": "Jakarta",
    "to": "Tokyo",
    "codeOrigin": "CGK",
    "codeTo": "NRT",
    "type": "International"
  },
  {
    "origin": "Jakarta",
    "to": "Seoul",
    "codeOrigin": "CGK",
    "codeTo": "ICN",
    "type": "International"
  },
  {
    "origin": "New Delhi",
    "to": "Mumbai",
    "codeOrigin": "DEL",
    "codeTo": "BOM",
    "type": "Interieur"
  },
  {
    "origin": "New Delhi",
    "to": "Bangalore",
    "codeOrigin": "DEL",
    "codeTo": "BLR",
    "type": "Interieur"
  },
  {
    "origin": "New Delhi",
    "to": "Hong Kong",
    "codeOrigin": "DEL",
    "codeTo": "HKG",
    "type": "International"
  },
  {
    "origin": "New Delhi",
    "to": "Dubai",
    "codeOrigin": "DEL",
    "codeTo": "DXB",
    "type": "International"
  },
  {
    "origin": "New Delhi",
    "to": "London",
    "codeOrigin": "DEL",
    "codeTo": "LHR",
    "type": "International"
  },
  {
    "origin": "New Delhi",
    "to": "Kuala Lumpur",
    "codeOrigin": "DEL",
    "codeTo": "KUL",
    "type": "International"
  },
  {
    "origin": "New Delhi",
    "to": "Singapore",
    "codeOrigin": "DEL",
    "codeTo": "SIN",
    "type": "International"
  },
  {
    "origin": "New Delhi",
    "to": "Amsterdam",
    "codeOrigin": "DEL",
    "codeTo": "AMS",
    "type": "International"
  },
  {
    "origin": "New Delhi",
    "to": "Guangzhou",
    "codeOrigin": "DEL",
    "codeTo": "CAN",
    "type": "International"
  },
  {
    "origin": "New Delhi",
    "to": "Shanghai",
    "codeOrigin": "DEL",
    "codeTo": "PVG",
    "type": "International"
  },
  {
    "origin": "Mumbai",
    "to": "Bangkok",
    "codeOrigin": "BOM",
    "codeTo": "BKK",
    "type": "International"
  },
  {
    "origin": "Mumbai",
    "to": "Paris",
    "codeOrigin": "BOM",
    "codeTo": "CDG",
    "type": "International"
  },
  {
    "origin": "Mumbai",
    "to": "New York",
    "codeOrigin": "BOM",
    "codeTo": "EWR",
    "type": "International"
  },
  {
    "origin": "Mumbai",
    "to": "Jeddah",
    "codeOrigin": "BOM",
    "codeTo": "JED",
    "type": "International"
  },
  {
    "origin": "Seoul",
    "to": "Hong Kong",
    "codeOrigin": "ICN",
    "codeTo": "HKG",
    "type": "International"
  },
  {
    "origin": "Seoul",
    "to": "Bangkok",
    "codeOrigin": "ICN",
    "codeTo": "BKK",
    "type": "International"
  },
  {
    "origin": "Seoul",
    "to": "Los Angeles",
    "codeOrigin": "ICN",
    "codeTo": "LAX",
    "type": "International"
  },
  {
    "origin": "Seoul",
    "to": "Anchorage",
    "codeOrigin": "ICN",
    "codeTo": "ANC",
    "type": "International"
  },
  {
    "origin": "Seoul",
    "to": "Singapore",
    "codeOrigin": "ICN",
    "codeTo": "SIN",
    "type": "International"
  },
  {
    "origin": "Seoul",
    "to": "Hanoi",
    "codeOrigin": "ICN",
    "codeTo": "HAN",
    "type": "International"
  },
  {
    "origin": "Seoul",
    "to": "San Francisco",
    "codeOrigin": "ICN",
    "codeTo": "SFO",
    "type": "International"
  },
  {
    "origin": "Seoul",
    "to": "Tokyo",
    "codeOrigin": "ICN",
    "codeTo": "NRT",
    "type": "International"
  },
  {
    "origin": "Seoul",
    "to": "Frankfurt",
    "codeOrigin": "ICN",
    "codeTo": "FRA",
    "type": "International"
  },
  {
    "origin": "Seoul",
    "to": "New York",
    "codeOrigin": "ICN",
    "codeTo": "JFK",
    "type": "International"
  },
  {
    "origin": "Seoul",
    "to": "London",
    "codeOrigin": "ICN",
    "codeTo": "LHR",
    "type": "International"
  },
  {
    "origin": "Seoul",
    "to": "Taipei",
    "codeOrigin": "ICN",
    "codeTo": "TPE",
    "type": "International"
  },
  {
    "origin": "Seoul",
    "to": "Beijing",
    "codeOrigin": "ICN",
    "codeTo": "PEK",
    "type": "International"
  },
  {
    "origin": "Seoul",
    "to": "Guangzhou",
    "codeOrigin": "ICN",
    "codeTo": "CAN",
    "type": "International"
  },
  {
    "origin": "Seoul",
    "to": "Osaka",
    "codeOrigin": "ICN",
    "codeTo": "KIX",
    "type": "International"
  },
  {
    "origin": "Seoul",
    "to": "Macau",
    "codeOrigin": "ICN",
    "codeTo": "MFM",
    "type": "International"
  },
  {
    "origin": "Seoul",
    "to": "Rome",
    "codeOrigin": "ICN",
    "codeTo": "FCO",
    "type": "International"
  },
  {
    "origin": "Jeju",
    "to": "Seoul",
    "codeOrigin": "CJU",
    "codeTo": "GMP",
    "type": "Interieur"
  },
  {
    "origin": "Jeddah",
    "to": "Riyadh",
    "codeOrigin": "JED",
    "codeTo": "RUH",
    "type": "Interieur"
  },
  {
    "origin": "Jeddah",
    "to": "Dubai",
    "codeOrigin": "JED",
    "codeTo": "DXB",
    "type": "International"
  },
  {
    "origin": "Jeddah",
    "to": "Istanbul",
    "codeOrigin": "JED",
    "codeTo": "IST",
    "type": "International"
  },
  {
    "origin": "Jeddah",
    "to": "Cairo",
    "codeOrigin": "JED",
    "codeTo": "CAI",
    "type": "International"
  },
  {
    "origin": "Jeddah",
    "to": "Kuala Lumpur",
    "codeOrigin": "JED",
    "codeTo": "KUL",
    "type": "International"
  },
  {
    "origin": "Jeddah",
    "to": "Abu Dhabi",
    "codeOrigin": "JED",
    "codeTo": "AUH",
    "type": "International"
  },
  {
    "origin": "Istanbul",
    "to": "Paris",
    "codeOrigin": "IST",
    "codeTo": "CDG",
    "type": "International"
  },
  {
    "origin": "Istanbul",
    "to": "Frankfurt",
    "codeOrigin": "IST",
    "codeTo": "FRA",
    "type": "International"
  },
  {
    "origin": "Istanbul",
    "to": "Amsterdam",
    "codeOrigin": "IST",
    "codeTo": "AMS",
    "type": "International"
  },
  {
    "origin": "Istanbul",
    "to": "Izmir",
    "codeOrigin": "IST",
    "codeTo": "ADB",
    "type": "Interieur"
  },
  {
    "origin": "Istanbul",
    "to": "London",
    "codeOrigin": "IST",
    "codeTo": "LHR",
    "type": "International"
  },
  {
    "origin": "Istanbul",
    "to": "DÃ¼sseldorf",
    "codeOrigin": "IST",
    "codeTo": "DUS",
    "type": "International"
  },
  {
    "origin": "Istanbul",
    "to": "Tel Aviv",
    "codeOrigin": "IST",
    "codeTo": "TLV",
    "type": "International"
  },
  {
    "origin": "Istanbul",
    "to": "Zurich",
    "codeOrigin": "IST",
    "codeTo": "ZRH",
    "type": "International"
  },
  {
    "origin": "Istanbul",
    "to": "New York",
    "codeOrigin": "IST",
    "codeTo": "JFK",
    "type": "International"
  },
  {
    "origin": "Antalya",
    "to": "Kiev",
    "codeOrigin": "AYT",
    "codeTo": "KBP",
    "type": "International"
  },
  {
    "origin": "Antalya",
    "to": "Moscow",
    "codeOrigin": "AYT",
    "codeTo": "VKO",
    "type": "International"
  },
  {
    "origin": "New York",
    "to": "Los Angeles",
    "codeOrigin": "JFK",
    "codeTo": "LAX",
    "type": "Interieur"
  },
  {
    "origin": "New York",
    "to": "San Francisco",
    "codeOrigin": "JFK",
    "codeTo": "SFO",
    "type": "Interieur"
  },
  {
    "origin": "New York",
    "to": "Las Vegas",
    "codeOrigin": "JFK",
    "codeTo": "LAS",
    "type": "International"
  },
  {
    "origin": "New York",
    "to": "Rome",
    "codeOrigin": "JFK",
    "codeTo": "FCO",
    "type": "International"
  },
  {
    "origin": "New York",
    "to": "Paris",
    "codeOrigin": "JFK",
    "codeTo": "CDG",
    "type": "International"
  },
  {
    "origin": "New York",
    "to": "Madrid",
    "codeOrigin": "JFK",
    "codeTo": "MAD",
    "type": "International"
  },
  {
    "origin": "New York",
    "to": "Milan",
    "codeOrigin": "JFK",
    "codeTo": "MXP",
    "type": "International"
  },
  {
    "origin": "New York",
    "to": "Zurich",
    "codeOrigin": "JFK",
    "codeTo": "ZRH",
    "type": "International"
  },
  {
    "origin": "New York",
    "to": "Amsterdam",
    "codeOrigin": "JFK",
    "codeTo": "AMS",
    "type": "International"
  },
  {
    "origin": "New York",
    "to": "Manchester",
    "codeOrigin": "JFK",
    "codeTo": "MAN",
    "type": "International"
  },
  {
    "origin": "New York",
    "to": "Frankfurt",
    "codeOrigin": "JFK",
    "codeTo": "FRA",
    "type": "International"
  },
  {
    "origin": "New York",
    "to": "Hong Kong",
    "codeOrigin": "JFK",
    "codeTo": "HKG",
    "type": "International"
  },
  {
    "origin": "New York",
    "to": "Dubai",
    "codeOrigin": "JFK",
    "codeTo": "DXB",
    "type": "International"
  },
  {
    "origin": "Los Angeles",
    "to": "San Francisco",
    "codeOrigin": "LAX",
    "codeTo": "SFO",
    "type": "Interieur"
  },
  {
    "origin": "Los Angeles",
    "to": "Shanghai",
    "codeOrigin": "LAX",
    "codeTo": "PVG",
    "type": "International"
  },
  {
    "origin": "Los Angeles",
    "to": "Tokyo",
    "codeOrigin": "LAX",
    "codeTo": "NRT",
    "type": "International"
  },
  {
    "origin": "Los Angeles",
    "to": "Taipei",
    "codeOrigin": "LAX",
    "codeTo": "TPE",
    "type": "International"
  },
  {
    "origin": "Los Angeles",
    "to": "Hong Kong",
    "codeOrigin": "LAX",
    "codeTo": "HKG",
    "type": "International"
  },
  {
    "origin": "Los Angeles",
    "to": "Paris",
    "codeOrigin": "LAX",
    "codeTo": "CDG",
    "type": "International"
  },
  {
    "origin": "Los Angeles",
    "to": "Beijing",
    "codeOrigin": "LAX",
    "codeTo": "PEK",
    "type": "International"
  },
  {
    "origin": "Los Angeles",
    "to": "Toronto",
    "codeOrigin": "LAX",
    "codeTo": "YYZ",
    "type": "International"
  },
  {
    "origin": "Chicago",
    "to": "New York",
    "codeOrigin": "ORD",
    "codeTo": "LGA",
    "type": "Interieur"
  },
  {
    "origin": "Chicago",
    "to": "Los Angeles",
    "codeOrigin": "ORD",
    "codeTo": "LAX",
    "type": "Interieur"
  },
  {
    "origin": "Chicago",
    "to": "London",
    "codeOrigin": "ORD",
    "codeTo": "LHR",
    "type": "International"
  },
  {
    "origin": "Chicago",
    "to": "Frankfurt",
    "codeOrigin": "ORD",
    "codeTo": "FRA",
    "type": "International"
  },
  {
    "origin": "Chicago",
    "to": "Tokyo",
    "codeOrigin": "ORD",
    "codeTo": "NRT",
    "type": "International"
  },
  {
    "origin": "Chicago",
    "to": "Toronto",
    "codeOrigin": "ORD",
    "codeTo": "YYZ",
    "type": "International"
  },
  {
    "origin": "Chicago",
    "to": "Paris",
    "codeOrigin": "ORD",
    "codeTo": "CDG",
    "type": "International"
  },
  {
    "origin": "Dallas",
    "to": "New York",
    "codeOrigin": "DFW",
    "codeTo": "LGA",
    "type": "Interieur"
  },
  {
    "origin": "Dallas",
    "to": "Los Angeles",
    "codeOrigin": "DFW",
    "codeTo": "LAX",
    "type": "Interieur"
  },
  {
    "origin": "Boston",
    "to": "New York",
    "codeOrigin": "BOS",
    "codeTo": "LGA",
    "type": "Interieur"
  },
  {
    "origin": "Toronto",
    "to": "Vancouver",
    "codeOrigin": "YYZ",
    "codeTo": "YVR",
    "type": "Interieur"
  },
  {
    "origin": "Toronto",
    "to": "Calgary",
    "codeOrigin": "YYZ",
    "codeTo": "YYC",
    "type": "Interieur"
  },
  {
    "origin": "Toronto",
    "to": "MontrÃ©al",
    "codeOrigin": "YYZ",
    "codeTo": "YUL",
    "type": "Interieur"
  },
  {
    "origin": "Toronto",
    "to": "London",
    "codeOrigin": "YYZ",
    "codeTo": "LHR",
    "type": "International"
  },
  {
    "origin": "Toronto",
    "to": "Charlotte",
    "codeOrigin": "YYZ",
    "codeTo": "CLT",
    "type": "International"
  },
  {
    "origin": "Toronto",
    "to": "New York",
    "codeOrigin": "YYZ",
    "codeTo": "LGA",
    "type": "International"
  },
  {
    "origin": "Toronto",
    "to": "Amsterdam",
    "codeOrigin": "YYZ",
    "codeTo": "AMS",
    "type": "International"
  },
  {
    "origin": "Toronto",
    "to": "Shanghai",
    "codeOrigin": "YYZ",
    "codeTo": "PVG",
    "type": "International"
  },
  {
    "origin": "Toronto",
    "to": "Beijing",
    "codeOrigin": "YYZ",
    "codeTo": "PEK",
    "type": "International"
  },
  {
    "origin": "MontrÃ©al",
    "to": "Paris",
    "codeOrigin": "YUL",
    "codeTo": "CDG",
    "type": "International"
  },
  {
    "origin": "MontrÃ©al",
    "to": "Frankfurt",
    "codeOrigin": "YUL",
    "codeTo": "FRA",
    "type": "International"
  },
  {
    "origin": "MontrÃ©al",
    "to": "New York",
    "codeOrigin": "YUL",
    "codeTo": "LGA",
    "type": "International"
  },
  {
    "origin": "Vancouver",
    "to": "Denver",
    "codeOrigin": "YVR",
    "codeTo": "DEN",
    "type": "International"
  },
  {
    "origin": "Vancouver",
    "to": "Hong Kong",
    "codeOrigin": "YVR",
    "codeTo": "HKG",
    "type": "International"
  },
  {
    "origin": "Vancouver",
    "to": "Beijing",
    "codeOrigin": "YVR",
    "codeTo": "PEK",
    "type": "International"
  },
  {
    "origin": "Tokyo",
    "to": "Honolulu",
    "codeOrigin": "NRT",
    "codeTo": "HNL",
    "type": "International"
  },
  {
    "origin": "Tokyo",
    "to": "Taipei",
    "codeOrigin": "NRT",
    "codeTo": "TPE",
    "type": "International"
  },
  {
    "origin": "Tokyo",
    "to": "Hong Kong",
    "codeOrigin": "NRT",
    "codeTo": "HKG",
    "type": "International"
  },
  {
    "origin": "Tokyo",
    "to": "Shanghai",
    "codeOrigin": "NRT",
    "codeTo": "PVG",
    "type": "International"
  },
  {
    "origin": "Tokyo",
    "to": "Singapore",
    "codeOrigin": "NRT",
    "codeTo": "SIN",
    "type": "International"
  },
  {
    "origin": "Tokyo",
    "to": "Guangzhou",
    "codeOrigin": "NRT",
    "codeTo": "CAN",
    "type": "International"
  },
  {
    "origin": "Tokyo",
    "to": "Paris",
    "codeOrigin": "HND",
    "codeTo": "CDG",
    "type": "International"
  },
  {
    "origin": "Tokyo",
    "to": "Milan",
    "codeOrigin": "NRT",
    "codeTo": "MXP",
    "type": "International"
  },
  {
    "origin": "Tokyo",
    "to": "Osaka",
    "codeOrigin": "NRT",
    "codeTo": "KIX",
    "type": "Interieur"
  },
  {
    "origin": "Tokyo",
    "to": "Sapporo",
    "codeOrigin": "HND",
    "codeTo": "CTS",
    "type": "Interieur"
  },
  {
    "origin": "Tokyo",
    "to": "Fukuoka",
    "codeOrigin": "HND",
    "codeTo": "FUK",
    "type": "Interieur"
  },
  {
    "origin": "Tokyo",
    "to": "Okinawa",
    "codeOrigin": "HND",
    "codeTo": "OKA",
    "type": "Interieur"
  },
  {
    "origin": "Tokyo",
    "to": "London",
    "codeOrigin": "HND",
    "codeTo": "LHR",
    "type": "International"
  },
  {
    "origin": "Tokyo",
    "to": "Munich",
    "codeOrigin": "HND",
    "codeTo": "MUC",
    "type": "International"
  },
  {
    "origin": "Tokyo",
    "to": "Beijing",
    "codeOrigin": "HND",
    "codeTo": "PEK",
    "type": "International"
  },
  {
    "origin": "Osaka",
    "to": "Shanghai",
    "codeOrigin": "KIX",
    "codeTo": "PVG",
    "type": "International"
  },
  {
    "origin": "Osaka",
    "to": "Hong Kong",
    "codeOrigin": "KIX",
    "codeTo": "HKG",
    "type": "International"
  },
  {
    "origin": "Osaka",
    "to": "Singapore",
    "codeOrigin": "KIX",
    "codeTo": "SIN",
    "type": "International"
  },
  {
    "origin": "Osaka",
    "to": "Frankfurt",
    "codeOrigin": "KIX",
    "codeTo": "FRA",
    "type": "International"
  },
  {
    "origin": "Osaka",
    "to": "San Francisco",
    "codeOrigin": "KIX",
    "codeTo": "SFO",
    "type": "International"
  },
  {
    "origin": "Beijing",
    "to": "Chengdu",
    "codeOrigin": "PEK",
    "codeTo": "CTU",
    "type": "Interieur"
  },
  {
    "origin": "Beijing",
    "to": "Shenzhen",
    "codeOrigin": "PEK",
    "codeTo": "SZX",
    "type": "Interieur"
  },
  {
    "origin": "Beijing",
    "to": "Shanghai",
    "codeOrigin": "PEK",
    "codeTo": "SHA",
    "type": "Interieur"
  },
  {
    "origin": "Beijing",
    "to": "Guangzhou",
    "codeOrigin": "PEK",
    "codeTo": "CAN",
    "type": "Interieur"
  },
  {
    "origin": "Beijing",
    "to": "Hong Kong",
    "codeOrigin": "PEK",
    "codeTo": "HKG",
    "type": "International"
  },
  {
    "origin": "Beijing",
    "to": "London",
    "codeOrigin": "PEK",
    "codeTo": "LHR",
    "type": "International"
  },
  {
    "origin": "Beijing",
    "to": "Kuala Lumpur",
    "codeOrigin": "PEK",
    "codeTo": "KUL",
    "type": "International"
  },
  {
    "origin": "Beijing",
    "to": "Washington",
    "codeOrigin": "PEK",
    "codeTo": "IAD",
    "type": "International"
  },
  {
    "origin": "Beijing",
    "to": "Singapore",
    "codeOrigin": "PEK",
    "codeTo": "SIN",
    "type": "International"
  },
  {
    "origin": "Beijing",
    "to": "Moscow",
    "codeOrigin": "PEK",
    "codeTo": "SVO",
    "type": "International"
  },
  {
    "origin": "Beijing",
    "to": "Frankfurt",
    "codeOrigin": "PEK",
    "codeTo": "FRA",
    "type": "International"
  },
  {
    "origin": "Beijing",
    "to": "Paris",
    "codeOrigin": "PEK",
    "codeTo": "CDG",
    "type": "International"
  },
  {
    "origin": "Beijing",
    "to": "Taipei",
    "codeOrigin": "PEK",
    "codeTo": "TPE",
    "type": "International"
  },
  {
    "origin": "Beijing",
    "to": "Bangkok",
    "codeOrigin": "PEK",
    "codeTo": "BKK",
    "type": "International"
  },
  {
    "origin": "Beijing",
    "to": "Ho Chi Minh",
    "codeOrigin": "PEK",
    "codeTo": "SGN",
    "type": "International"
  },
  {
    "origin": "Shanghai",
    "to": "Hong Kong",
    "codeOrigin": "PVG",
    "codeTo": "HKG",
    "type": "International"
  },
  {
    "origin": "Shanghai",
    "to": "Bangkok",
    "codeOrigin": "PVG",
    "codeTo": "BKK",
    "type": "International"
  },
  {
    "origin": "Shanghai",
    "to": "Guangzhou",
    "codeOrigin": "SHA",
    "codeTo": "CAN",
    "type": "Interieur"
  },
  {
    "origin": "Shanghai",
    "to": "Frankfurt",
    "codeOrigin": "PVG",
    "codeTo": "FRA",
    "type": "International"
  },
  {
    "origin": "Shanghai",
    "to": "Singapore",
    "codeOrigin": "PVG",
    "codeTo": "SIN",
    "type": "International"
  },
  {
    "origin": "Shanghai",
    "to": "London",
    "codeOrigin": "PVG",
    "codeTo": "LHR",
    "type": "International"
  },
  {
    "origin": "Shanghai",
    "to": "Chicago",
    "codeOrigin": "PVG",
    "codeTo": "ORD",
    "type": "International"
  },
  {
    "origin": "Shanghai",
    "to": "Moscow",
    "codeOrigin": "PVG",
    "codeTo": "SVO",
    "type": "International"
  },
  {
    "origin": "Shanghai",
    "to": "Paris",
    "codeOrigin": "PVG",
    "codeTo": "CDG",
    "type": "International"
  },
  {
    "origin": "Shanghai",
    "to": "Amsterdam",
    "codeOrigin": "PVG",
    "codeTo": "AMS",
    "type": "International"
  },
  {
    "origin": "Shanghai",
    "to": "Ho Chi Minh",
    "codeOrigin": "PVG",
    "codeTo": "SGN",
    "type": "International"
  },
  {
    "origin": "Guangzhou",
    "to": "Singapore",
    "codeOrigin": "CAN",
    "codeTo": "SIN",
    "type": "International"
  },
  {
    "origin": "Guangzhou",
    "to": "Kuala Lumpur",
    "codeOrigin": "CAN",
    "codeTo": "KUL",
    "type": "International"
  },
  {
    "origin": "Guangzhou",
    "to": "Amsterdam",
    "codeOrigin": "CAN",
    "codeTo": "AMS",
    "type": "International"
  },
  {
    "origin": "Guangzhou",
    "to": "Hanoi",
    "codeOrigin": "CAN",
    "codeTo": "HAN",
    "type": "International"
  },
  {
    "origin": "Moscow",
    "to": "Paris",
    "codeOrigin": "SVO",
    "codeTo": "CDG",
    "type": "International"
  },
  {
    "origin": "Moscow",
    "to": "Prague",
    "codeOrigin": "SVO",
    "codeTo": "PRG",
    "type": "International"
  },
  {
    "origin": "Moscow",
    "to": "St. Petersburg",
    "codeOrigin": "SVO",
    "codeTo": "LED",
    "type": "Interieur"
  },
  {
    "origin": "Moscow",
    "to": "Amsterdam",
    "codeOrigin": "SVO",
    "codeTo": "AMS",
    "type": "International"
  },
  {
    "origin": "Moscow",
    "to": "Simferopol",
    "codeOrigin": "SVO",
    "codeTo": "SIP",
    "type": "International"
  },
  {
    "origin": "Moscow",
    "to": "Frankfurt",
    "codeOrigin": "SVO",
    "codeTo": "FRA",
    "type": "International"
  },
  {
    "origin": "Moscow",
    "to": "Rome",
    "codeOrigin": "SVO",
    "codeTo": "FCO",
    "type": "International"
  },
  {
    "origin": "Moscow",
    "to": "London",
    "codeOrigin": "SVO",
    "codeTo": "LHR",
    "type": "International"
  },
  {
    "origin": "Moscow",
    "to": "Milan",
    "codeOrigin": "SVO",
    "codeTo": "MXP",
    "type": "International"
  },
  {
    "origin": "Moscow",
    "to": "Sochi",
    "codeOrigin": "SVO",
    "codeTo": "AER",
    "type": "Interieur"
  },
  {
    "origin": "Moscow",
    "to": "Berlin",
    "codeOrigin": "SVO",
    "codeTo": "SXF",
    "type": "International"
  },
  {
    "origin": "Moscow",
    "to": "Vienna",
    "codeOrigin": "DME",
    "codeTo": "VIE",
    "type": "International"
  },
  {
    "origin": "Moscow",
    "to": "Antalya",
    "codeOrigin": "DME",
    "codeTo": "AYT",
    "type": "International"
  },
  {
    "origin": "Moscow",
    "to": "Barcelona",
    "codeOrigin": "DME",
    "codeTo": "BCN",
    "type": "International"
  },
  {
    "origin": "St. Petersburg",
    "to": "Rome",
    "codeOrigin": "LED",
    "codeTo": "FCO",
    "type": "International"
  },
  {
    "origin": "St. Petersburg",
    "to": "Paris",
    "codeOrigin": "LED",
    "codeTo": "CDG",
    "type": "International"
  },
  {
    "origin": "St. Petersburg",
    "to": "Antalya",
    "codeOrigin": "LED",
    "codeTo": "AYT",
    "type": "International"
  },
  {
    "origin": "St. Petersburg",
    "to": "Frankfurt",
    "codeOrigin": "LED",
    "codeTo": "FRA",
    "type": "International"
  },
  {
    "origin": "Frankfurt",
    "to": "London",
    "codeOrigin": "FRA",
    "codeTo": "LHR",
    "type": "International"
  },
  {
    "origin": "Frankfurt",
    "to": "Washington",
    "codeOrigin": "FRA",
    "codeTo": "IAD",
    "type": "International"
  },
  {
    "origin": "Frankfurt",
    "to": "Dubai",
    "codeOrigin": "FRA",
    "codeTo": "DXB",
    "type": "International"
  },
  {
    "origin": "Frankfurt",
    "to": "Madrid",
    "codeOrigin": "FRA",
    "codeTo": "MAD",
    "type": "International"
  },
  {
    "origin": "Frankfurt",
    "to": "Vienna",
    "codeOrigin": "FRA",
    "codeTo": "VIE",
    "type": "International"
  },
  {
    "origin": "Frankfurt",
    "to": "Palma de Mallorca",
    "codeOrigin": "FRA",
    "codeTo": "PMI",
    "type": "International"
  },
  {
    "origin": "Frankfurt",
    "to": "Lisbon",
    "codeOrigin": "FRA",
    "codeTo": "LIS",
    "type": "International"
  },
  {
    "origin": "Frankfurt",
    "to": "Barcelona",
    "codeOrigin": "FRA",
    "codeTo": "BCN",
    "type": "International"
  },
  {
    "origin": "Frankfurt",
    "to": "Berlin",
    "codeOrigin": "FRA",
    "codeTo": "TXL",
    "type": "Interieur"
  },
  {
    "origin": "Frankfurt",
    "to": "Rome",
    "codeOrigin": "FRA",
    "codeTo": "FCO",
    "type": "International"
  },
  {
    "origin": "Frankfurt",
    "to": "Munich",
    "codeOrigin": "FRA",
    "codeTo": "MUC",
    "type": "Interieur"
  },
  {
    "origin": "Frankfurt",
    "to": "Milan",
    "codeOrigin": "FRA",
    "codeTo": "LIN",
    "type": "International"
  },
  {
    "origin": "Frankfurt",
    "to": "Singapore",
    "codeOrigin": "FRA",
    "codeTo": "SIN",
    "type": "International"
  },
  {
    "origin": "Frankfurt",
    "to": "Paris",
    "codeOrigin": "FRA",
    "codeTo": "CDG",
    "type": "International"
  },
  {
    "origin": "Frankfurt",
    "to": "Amsterdam",
    "codeOrigin": "FRA",
    "codeTo": "AMS",
    "type": "International"
  },
  {
    "origin": "Frankfurt",
    "to": "Geneva",
    "codeOrigin": "FRA",
    "codeTo": "GVA",
    "type": "International"
  },
  {
    "origin": "Munich",
    "to": "London",
    "codeOrigin": "MUC",
    "codeTo": "LHR",
    "type": "International"
  },
  {
    "origin": "Munich",
    "to": "Madrid",
    "codeOrigin": "MUC",
    "codeTo": "MAD",
    "type": "International"
  },
  {
    "origin": "Munich",
    "to": "Dusseldorf",
    "codeOrigin": "MUC",
    "codeTo": "DUS",
    "type": "Interieur"
  },
  {
    "origin": "Munich",
    "to": "Hamburg",
    "codeOrigin": "MUC",
    "codeTo": "HAM",
    "type": "Interieur"
  },
  {
    "origin": "Munich",
    "to": "Paris",
    "codeOrigin": "MUC",
    "codeTo": "CDG",
    "type": "International"
  },
  {
    "origin": "Munich",
    "to": "Chicago",
    "codeOrigin": "MUC",
    "codeTo": "ORD",
    "type": "International"
  },
  {
    "origin": "Munich",
    "to": "Amsterdam",
    "codeOrigin": "MUC",
    "codeTo": "AMS",
    "type": "International"
  },
  {
    "origin": "Munich",
    "to": "Dubai",
    "codeOrigin": "MUC",
    "codeTo": "DXB",
    "type": "International"
  },
  {
    "origin": "Berlin",
    "to": "Paris",
    "codeOrigin": "TXL",
    "codeTo": "CDG",
    "type": "International"
  },
  {
    "origin": "Berlin",
    "to": "Palma de Mallorca",
    "codeOrigin": "TXL",
    "codeTo": "PMI",
    "type": "International"
  },
  {
    "origin": "Berlin",
    "to": "London",
    "codeOrigin": "TXL",
    "codeTo": "LHR",
    "type": "International"
  },
  {
    "origin": "Berlin",
    "to": "Zurich",
    "codeOrigin": "TXL",
    "codeTo": "ZRH",
    "type": "International"
  },
  {
    "origin": "Rome",
    "to": "London",
    "codeOrigin": "FCO",
    "codeTo": "LHR",
    "type": "International"
  },
  {
    "origin": "Rome",
    "to": "Catania",
    "codeOrigin": "FCO",
    "codeTo": "CTA",
    "type": "Interieur"
  },
  {
    "origin": "Rome",
    "to": "Paris",
    "codeOrigin": "FCO",
    "codeTo": "CDG",
    "type": "International"
  },
  {
    "origin": "Rome",
    "to": "Barcelona",
    "codeOrigin": "FCO",
    "codeTo": "BCN",
    "type": "International"
  },
  {
    "origin": "Rome",
    "to": "Madrid",
    "codeOrigin": "FCO",
    "codeTo": "MAD",
    "type": "International"
  },
  {
    "origin": "Rome",
    "to": "Milan",
    "codeOrigin": "FCO",
    "codeTo": "LIN",
    "type": "International"
  },
  {
    "origin": "Rome",
    "to": "Chicago",
    "codeOrigin": "FCO",
    "codeTo": "ORD",
    "type": "International"
  },
  {
    "origin": "Rome",
    "to": "Amsterdam",
    "codeOrigin": "FCO",
    "codeTo": "AMS",
    "type": "International"
  },
  {
    "origin": "Rome",
    "to": "Dubai",
    "codeOrigin": "FCO",
    "codeTo": "DXB",
    "type": "International"
  },
  {
    "origin": "Rome",
    "to": "Zurich",
    "codeOrigin": "FCO",
    "codeTo": "ZRH",
    "type": "International"
  },
  {
    "origin": "Rome",
    "to": "Nice",
    "codeOrigin": "FCO",
    "codeTo": "NCE",
    "type": "International"
  },
  {
    "origin": "Rome",
    "to": "Marseille",
    "codeOrigin": "FCO",
    "codeTo": "MRS",
    "type": "International"
  },
  {
    "origin": "Milan",
    "to": "Paris",
    "codeOrigin": "MXP",
    "codeTo": "CDG",
    "type": "International"
  },
  {
    "origin": "Milan",
    "to": "Amsterdam",
    "codeOrigin": "MXP",
    "codeTo": "AMS",
    "type": "International"
  },
  {
    "origin": "Milan",
    "to": "Madrid",
    "codeOrigin": "MXP",
    "codeTo": "MAD",
    "type": "International"
  },
  {
    "origin": "Milan",
    "to": "Barcelona",
    "codeOrigin": "MXP",
    "codeTo": "BCN",
    "type": "International"
  },
  {
    "origin": "Milan",
    "to": "Dubai",
    "codeOrigin": "MXP",
    "codeTo": "DXB",
    "type": "International"
  },
  {
    "origin": "Milan",
    "to": "Manchester",
    "codeOrigin": "MXP",
    "codeTo": "MAN",
    "type": "International"
  },
  {
    "origin": "Milan",
    "to": "London",
    "codeOrigin": "LIN",
    "codeTo": "LHR",
    "type": "International"
  },
  {
    "origin": "Paris",
    "to": "Dubai",
    "codeOrigin": "CDG",
    "codeTo": "DXB",
    "type": "International"
  },
  {
    "origin": "Paris",
    "to": "Athens",
    "codeOrigin": "CDG",
    "codeTo": "ATH",
    "type": "International"
  },
  {
    "origin": "Paris",
    "to": "San Francisco",
    "codeOrigin": "CDG",
    "codeTo": "SFO",
    "type": "International"
  },
  {
    "origin": "Paris",
    "to": "London",
    "codeOrigin": "CDG",
    "codeTo": "LHR",
    "type": "International"
  },
  {
    "origin": "Paris",
    "to": "Barcelona",
    "codeOrigin": "CDG",
    "codeTo": "BCN",
    "type": "International"
  },
  {
    "origin": "Paris",
    "to": "Washington",
    "codeOrigin": "CDG",
    "codeTo": "IAD",
    "type": "International"
  },
  {
    "origin": "Paris",
    "to": "Madrid",
    "codeOrigin": "CDG",
    "codeTo": "MAD",
    "type": "International"
  },
  {
    "origin": "Paris",
    "to": "Algiers",
    "codeOrigin": "CDG",
    "codeTo": "ALG",
    "type": "International"
  },
  {
    "origin": "Paris",
    "to": "Nice",
    "codeOrigin": "ORY",
    "codeTo": "NCE",
    "type": "Interieur"
  },
  {
    "origin": "Paris",
    "to": "Lisbon",
    "codeOrigin": "ORY",
    "codeTo": "LIS",
    "type": "International"
  },
  {
    "origin": "Paris",
    "to": "Geneva",
    "codeOrigin": "CDG",
    "codeTo": "GVA",
    "type": "International"
  },
  {
    "origin": "Paris",
    "to": "Doha",
    "codeOrigin": "CDG",
    "codeTo": "DOH",
    "type": "International"
  },
  {
    "origin": "Paris",
    "to": "Atlanta",
    "codeOrigin": "CDG",
    "codeTo": "ATL",
    "type": "International"
  },
  {
    "origin": "Paris",
    "to": "Pointe-a-Pitre",
    "codeOrigin": "ORY",
    "codeTo": "PTP",
    "type": "International"
  },
  {
    "origin": "Paris",
    "to": "Toulouse",
    "codeOrigin": "ORY",
    "codeTo": "TLS",
    "type": "Interieur"
  },
  {
    "origin": "Paris",
    "to": "Casablanca",
    "codeOrigin": "ORY",
    "codeTo": "CMN",
    "type": "International"
  },
  {
    "origin": "Paris",
    "to": "Marseille",
    "codeOrigin": "ORY",
    "codeTo": "MRS",
    "type": "Interieur"
  },
  {
    "origin": "Nice",
    "to": "Brussels",
    "codeOrigin": "NCE",
    "codeTo": "BRU",
    "type": "International"
  },
  {
    "origin": "Nice",
    "to": "London",
    "codeOrigin": "NCE",
    "codeTo": "LGW",
    "type": "International"
  },
  {
    "origin": "London",
    "to": "Dubai",
    "codeOrigin": "LHR",
    "codeTo": "DXB",
    "type": "International"
  },
  {
    "origin": "London",
    "to": "San Francisco",
    "codeOrigin": "LHR",
    "codeTo": "SFO",
    "type": "International"
  },
  {
    "origin": "London",
    "to": "Doha",
    "codeOrigin": "LHR",
    "codeTo": "DOH",
    "type": "International"
  },
  {
    "origin": "London",
    "to": "Amsterdam",
    "codeOrigin": "LHR",
    "codeTo": "AMS",
    "type": "International"
  },
  {
    "origin": "London",
    "to": "Geneva",
    "codeOrigin": "LHR",
    "codeTo": "GVA",
    "type": "International"
  },
  {
    "origin": "London",
    "to": "Madrid",
    "codeOrigin": "LHR",
    "codeTo": "MAD",
    "type": "International"
  },
  {
    "origin": "London",
    "to": "Dublin",
    "codeOrigin": "LHR",
    "codeTo": "DUB",
    "type": "International"
  },
  {
    "origin": "London",
    "to": "Atlanta",
    "codeOrigin": "LHR",
    "codeTo": "ATL",
    "type": "International"
  },
  {
    "origin": "London",
    "to": "Singapore",
    "codeOrigin": "LHR",
    "codeTo": "SIN",
    "type": "International"
  },
  {
    "origin": "London",
    "to": "Abu Dhabi",
    "codeOrigin": "LHR",
    "codeTo": "AUH",
    "type": "International"
  },
  {
    "origin": "London",
    "to": "Zurich",
    "codeOrigin": "LHR",
    "codeTo": "ZRH",
    "type": "International"
  },
  {
    "origin": "London",
    "to": "Glasgow",
    "codeOrigin": "LHR",
    "codeTo": "GLA",
    "type": "Interieur"
  },
  {
    "origin": "London",
    "to": "Barcelona",
    "codeOrigin": "LGW",
    "codeTo": "BCN",
    "type": "International"
  },
  {
    "origin": "London",
    "to": "Palma de Mallorca",
    "codeOrigin": "LGW",
    "codeTo": "PMI",
    "type": "International"
  },
  {
    "origin": "Manchester",
    "to": "Orlando",
    "codeOrigin": "MAN",
    "codeTo": "MCO",
    "type": "International"
  },
  {
    "origin": "Manchester",
    "to": "Amsterdam",
    "codeOrigin": "MAN",
    "codeTo": "AMS",
    "type": "International"
  },
  {
    "origin": "Manchester",
    "to": "Dubai",
    "codeOrigin": "MAN",
    "codeTo": "DXB",
    "type": "International"
  },
  {
    "origin": "Manchester",
    "to": "Paris",
    "codeOrigin": "MAN",
    "codeTo": "CDG",
    "type": "International"
  },
  {
    "origin": "Hong Kong",
    "to": "Taipei",
    "codeOrigin": "HKG",
    "codeTo": "TPE",
    "type": "International"
  },
  {
    "origin": "Hong Kong",
    "to": "Singapore",
    "codeOrigin": "HKG",
    "codeTo": "SIN",
    "type": "International"
  }
]